{
    "KPlugin": {
        "Authors": [
            {
                "Email": "",
                "Name": "Ken Vermette",
                "Name[az]": "Ken Vermette",
                "Name[ca@valencia]": "Ken Vermette",
                "Name[ca]": "Ken Vermette",
                "Name[es]": "Ken Vermette",
                "Name[eu]": "Ken Vermette",
                "Name[fr]": "Ken Vermette",
                "Name[it]": "Ken Vermette",
                "Name[nl]": "Ken Vermette",
                "Name[nn]": "Ken Vermette",
                "Name[pl]": "Ken Vermette",
                "Name[pt]": "Ken Vermette",
                "Name[sl]": "Ken Vermette",
                "Name[sv]": "Ken Vermette",
                "Name[tr]": "Ken Vermette",
                "Name[uk]": "Ken Vermette",
                "Name[x-test]": "xxKen Vermettexx",
                "Name[zh_CN]": "Ken Vermette"
            }
        ],
        "Id": "Opal",
        "License": "LGPLv3",
        "Name": "Opal",
        "Name[ar]": "أوبال",
        "Name[az]": "Opal",
        "Name[ca@valencia]": "Opal",
        "Name[ca]": "Opal",
        "Name[cs]": "Opál",
        "Name[da]": "Opal",
        "Name[de]": "Opal",
        "Name[en_GB]": "Opal",
        "Name[es]": "Ópalo",
        "Name[et]": "Opaal",
        "Name[eu]": "Opal",
        "Name[fi]": "Opal",
        "Name[fr]": "Opale",
        "Name[gl]": "Ópalo",
        "Name[hi]": "पांडुपत्थर",
        "Name[hu]": "Opal",
        "Name[ia]": "Opal",
        "Name[id]": "Opal",
        "Name[it]": "Opale",
        "Name[ko]": "오팔",
        "Name[lt]": "Opalas",
        "Name[nl]": "Opal",
        "Name[nn]": "Opal",
        "Name[pl]": "Opal",
        "Name[pt]": "Opala",
        "Name[pt_BR]": "Opala",
        "Name[ro]": "Opal",
        "Name[ru]": "Опал",
        "Name[sk]": "Opál",
        "Name[sl]": "Opal",
        "Name[sv]": "Opal",
        "Name[tg]": "Айнушшамс",
        "Name[tr]": "Opal",
        "Name[uk]": "Опал",
        "Name[x-test]": "xxOpalxx",
        "Name[zh_CN]": "Opal 宝光",
        "Name[zh_TW]": "Opal"
    }
}
