{
    "KPlugin": {
        "Authors": [
            {
                "Email": "raveomelette@gmail.com",
                "Name": "Nikita Babin",
                "Name[az]": "Nikita Babin",
                "Name[ca@valencia]": "Nikita Babin",
                "Name[ca]": "Nikita Babin",
                "Name[es]": "Nikita Babin",
                "Name[eu]": "Nikita Babin",
                "Name[fr]": "Nikita Babin",
                "Name[it]": "Nikita Babin",
                "Name[nl]": "Nikita Babin",
                "Name[nn]": "Nikita Babin",
                "Name[pl]": "Nikita Babin",
                "Name[pt]": "Nikita Babin",
                "Name[sl]": "Nikita Babin",
                "Name[sv]": "Nikita Babin",
                "Name[tr]": "Nikita Babin",
                "Name[uk]": "Нікіта Бабін",
                "Name[x-test]": "xxNikita Babinxx",
                "Name[zh_CN]": "Nikita Babin"
            }
        ],
        "Id": "Volna",
        "License": "CC-BY-SA-4.0",
        "Name": "Volna",
        "Name[ar]": "فولنا",
        "Name[az]": "Dalğa",
        "Name[ca@valencia]": "Volna",
        "Name[ca]": "Volna",
        "Name[da]": "Volna",
        "Name[de]": "Volna",
        "Name[en_GB]": "Volna",
        "Name[es]": "Volna",
        "Name[et]": "Volna",
        "Name[eu]": "Volna",
        "Name[fi]": "Volna",
        "Name[fr]": "Volna",
        "Name[hi]": "वोल्ना",
        "Name[hu]": "Volna",
        "Name[ia]": "Volna",
        "Name[it]": "Volna",
        "Name[ko]": "파도",
        "Name[lt]": "Volna",
        "Name[nl]": "Volna",
        "Name[nn]": "Volna",
        "Name[pa]": "ਵੋਲਨਾ",
        "Name[pl]": "Volna",
        "Name[pt]": "Volna",
        "Name[pt_BR]": "Volna",
        "Name[ro]": "Valul",
        "Name[ru]": "Волна",
        "Name[sk]": "Vlna",
        "Name[sl]": "Volna",
        "Name[sv]": "Volna",
        "Name[tr]": "Dalga",
        "Name[uk]": "Хвиля",
        "Name[x-test]": "xxVolnaxx",
        "Name[zh_CN]": "Volna 碧波",
        "Name[zh_TW]": "Volna"
    }
}
